-- Merging decision tree log ---
manifest
ADDED from /home/ciaran/snap/flutter/common/flutter/.pub-cache/hosted/pub.dartlang.org/flutter_bluetooth_serial-0.4.0/android/src/main/AndroidManifest.xml:1:1-7:12
INJECTED from /home/ciaran/snap/flutter/common/flutter/.pub-cache/hosted/pub.dartlang.org/flutter_bluetooth_serial-0.4.0/android/src/main/AndroidManifest.xml:1:1-7:12
INJECTED from /home/ciaran/snap/flutter/common/flutter/.pub-cache/hosted/pub.dartlang.org/flutter_bluetooth_serial-0.4.0/android/src/main/AndroidManifest.xml:1:1-7:12
	package
		ADDED from /home/ciaran/snap/flutter/common/flutter/.pub-cache/hosted/pub.dartlang.org/flutter_bluetooth_serial-0.4.0/android/src/main/AndroidManifest.xml:2:3-54
		INJECTED from /home/ciaran/snap/flutter/common/flutter/.pub-cache/hosted/pub.dartlang.org/flutter_bluetooth_serial-0.4.0/android/src/main/AndroidManifest.xml
		INJECTED from /home/ciaran/snap/flutter/common/flutter/.pub-cache/hosted/pub.dartlang.org/flutter_bluetooth_serial-0.4.0/android/src/main/AndroidManifest.xml
	xmlns:android
		ADDED from /home/ciaran/snap/flutter/common/flutter/.pub-cache/hosted/pub.dartlang.org/flutter_bluetooth_serial-0.4.0/android/src/main/AndroidManifest.xml:1:11-69
uses-permission#android.permission.BLUETOOTH
ADDED from /home/ciaran/snap/flutter/common/flutter/.pub-cache/hosted/pub.dartlang.org/flutter_bluetooth_serial-0.4.0/android/src/main/AndroidManifest.xml:3:5-68
	android:name
		ADDED from /home/ciaran/snap/flutter/common/flutter/.pub-cache/hosted/pub.dartlang.org/flutter_bluetooth_serial-0.4.0/android/src/main/AndroidManifest.xml:3:22-65
uses-permission#android.permission.BLUETOOTH_ADMIN
ADDED from /home/ciaran/snap/flutter/common/flutter/.pub-cache/hosted/pub.dartlang.org/flutter_bluetooth_serial-0.4.0/android/src/main/AndroidManifest.xml:4:5-74
	android:name
		ADDED from /home/ciaran/snap/flutter/common/flutter/.pub-cache/hosted/pub.dartlang.org/flutter_bluetooth_serial-0.4.0/android/src/main/AndroidManifest.xml:4:22-71
uses-permission#android.permission.ACCESS_COARSE_LOCATION
ADDED from /home/ciaran/snap/flutter/common/flutter/.pub-cache/hosted/pub.dartlang.org/flutter_bluetooth_serial-0.4.0/android/src/main/AndroidManifest.xml:5:5-80
	android:name
		ADDED from /home/ciaran/snap/flutter/common/flutter/.pub-cache/hosted/pub.dartlang.org/flutter_bluetooth_serial-0.4.0/android/src/main/AndroidManifest.xml:5:22-78
uses-permission#android.permission.ACCESS_FINE_LOCATION
ADDED from /home/ciaran/snap/flutter/common/flutter/.pub-cache/hosted/pub.dartlang.org/flutter_bluetooth_serial-0.4.0/android/src/main/AndroidManifest.xml:6:5-78
	android:name
		ADDED from /home/ciaran/snap/flutter/common/flutter/.pub-cache/hosted/pub.dartlang.org/flutter_bluetooth_serial-0.4.0/android/src/main/AndroidManifest.xml:6:22-76
uses-sdk
INJECTED from /home/ciaran/snap/flutter/common/flutter/.pub-cache/hosted/pub.dartlang.org/flutter_bluetooth_serial-0.4.0/android/src/main/AndroidManifest.xml reason: use-sdk injection requested
INJECTED from /home/ciaran/snap/flutter/common/flutter/.pub-cache/hosted/pub.dartlang.org/flutter_bluetooth_serial-0.4.0/android/src/main/AndroidManifest.xml
INJECTED from /home/ciaran/snap/flutter/common/flutter/.pub-cache/hosted/pub.dartlang.org/flutter_bluetooth_serial-0.4.0/android/src/main/AndroidManifest.xml
	android:minSdkVersion
		INJECTED from /home/ciaran/snap/flutter/common/flutter/.pub-cache/hosted/pub.dartlang.org/flutter_bluetooth_serial-0.4.0/android/src/main/AndroidManifest.xml
		ADDED from /home/ciaran/snap/flutter/common/flutter/.pub-cache/hosted/pub.dartlang.org/flutter_bluetooth_serial-0.4.0/android/src/main/AndroidManifest.xml
		INJECTED from /home/ciaran/snap/flutter/common/flutter/.pub-cache/hosted/pub.dartlang.org/flutter_bluetooth_serial-0.4.0/android/src/main/AndroidManifest.xml
