-- Merging decision tree log ---
manifest
ADDED from /home/ciaran/AndroidStudioProjects/remote/android/app/src/main/AndroidManifest.xml:1:1-41:12
INJECTED from /home/ciaran/AndroidStudioProjects/remote/android/app/src/main/AndroidManifest.xml:1:1-41:12
INJECTED from /home/ciaran/AndroidStudioProjects/remote/android/app/src/main/AndroidManifest.xml:1:1-41:12
INJECTED from /home/ciaran/AndroidStudioProjects/remote/android/app/src/main/AndroidManifest.xml:1:1-41:12
MERGED from [:flutter_bluetooth_serial] /home/ciaran/AndroidStudioProjects/remote/build/flutter_bluetooth_serial/intermediates/library_manifest/release/AndroidManifest.xml:2:1-12:12
MERGED from [androidx.appcompat:appcompat:1.3.0] /home/ciaran/.gradle/caches/transforms-2/files-2.1/8e826fe49562abada5d181756485a861/appcompat-1.3.0/AndroidManifest.xml:17:1-24:12
MERGED from [androidx.fragment:fragment:1.3.4] /home/ciaran/.gradle/caches/transforms-2/files-2.1/0fe786355672e38948fbc9c1fff747a3/fragment-1.3.4/AndroidManifest.xml:17:1-24:12
MERGED from [androidx.activity:activity:1.2.3] /home/ciaran/.gradle/caches/transforms-2/files-2.1/1cfe8ee384ca28182df52c824e57e5c0/jetified-activity-1.2.3/AndroidManifest.xml:17:1-24:12
MERGED from [androidx.appcompat:appcompat-resources:1.3.0] /home/ciaran/.gradle/caches/transforms-2/files-2.1/6704617e5cf2b2cf363841e778f9329d/jetified-appcompat-resources-1.3.0/AndroidManifest.xml:17:1-24:12
MERGED from [androidx.drawerlayout:drawerlayout:1.0.0] /home/ciaran/.gradle/caches/transforms-2/files-2.1/22a5d9f52d495a432176451a4c4ba982/drawerlayout-1.0.0/AndroidManifest.xml:17:1-22:12
MERGED from [androidx.viewpager:viewpager:1.0.0] /home/ciaran/.gradle/caches/transforms-2/files-2.1/2f70304b103eacfab05dbe55739e869f/viewpager-1.0.0/AndroidManifest.xml:17:1-22:12
MERGED from [androidx.loader:loader:1.0.0] /home/ciaran/.gradle/caches/transforms-2/files-2.1/49dee3543bc65746b6bba9f83aa0b18a/loader-1.0.0/AndroidManifest.xml:17:1-22:12
MERGED from [androidx.vectordrawable:vectordrawable-animated:1.1.0] /home/ciaran/.gradle/caches/transforms-2/files-2.1/2ee35bfe9d2e9019f071c4a047a96db2/vectordrawable-animated-1.1.0/AndroidManifest.xml:17:1-24:12
MERGED from [androidx.vectordrawable:vectordrawable:1.1.0] /home/ciaran/.gradle/caches/transforms-2/files-2.1/361553562ce35cf8cf447832c4a7d1ec/vectordrawable-1.1.0/AndroidManifest.xml:17:1-24:12
MERGED from [androidx.customview:customview:1.0.0] /home/ciaran/.gradle/caches/transforms-2/files-2.1/86cf751735e9e9dd0416cce35c4a71a1/customview-1.0.0/AndroidManifest.xml:17:1-22:12
MERGED from [androidx.core:core:1.5.0] /home/ciaran/.gradle/caches/transforms-2/files-2.1/eebedfd6526cd5539e0a44e6886856e3/core-1.5.0/AndroidManifest.xml:17:1-26:12
MERGED from [androidx.cursoradapter:cursoradapter:1.0.0] /home/ciaran/.gradle/caches/transforms-2/files-2.1/bae4382a703142a8f82a100a412243f1/cursoradapter-1.0.0/AndroidManifest.xml:17:1-22:12
MERGED from [androidx.lifecycle:lifecycle-viewmodel-savedstate:2.3.1] /home/ciaran/.gradle/caches/transforms-2/files-2.1/992030e32b5b233f7b54200907a8c687/jetified-lifecycle-viewmodel-savedstate-2.3.1/AndroidManifest.xml:17:1-24:12
MERGED from [androidx.savedstate:savedstate:1.1.0] /home/ciaran/.gradle/caches/transforms-2/files-2.1/3d71f750e18beb8ec39e98e4d040998e/jetified-savedstate-1.1.0/AndroidManifest.xml:17:1-24:12
MERGED from [androidx.lifecycle:lifecycle-runtime:2.3.1] /home/ciaran/.gradle/caches/transforms-2/files-2.1/9611d01e277af0a0bee38db16de6184f/lifecycle-runtime-2.3.1/AndroidManifest.xml:17:1-24:12
MERGED from [androidx.lifecycle:lifecycle-viewmodel:2.3.1] /home/ciaran/.gradle/caches/transforms-2/files-2.1/eb99decb44820e6dccd0fcc1b7518938/lifecycle-viewmodel-2.3.1/AndroidManifest.xml:17:1-24:12
MERGED from [androidx.versionedparcelable:versionedparcelable:1.1.1] /home/ciaran/.gradle/caches/transforms-2/files-2.1/cf37ac08cdad525e46b47ab5b0406817/versionedparcelable-1.1.1/AndroidManifest.xml:17:1-27:12
MERGED from [androidx.tracing:tracing:1.0.0] /home/ciaran/.gradle/caches/transforms-2/files-2.1/7c1a7b78a9eb87d9a948f050e96a4e5d/jetified-tracing-1.0.0/AndroidManifest.xml:17:1-24:12
MERGED from [androidx.lifecycle:lifecycle-livedata:2.0.0] /home/ciaran/.gradle/caches/transforms-2/files-2.1/15faa7fdc535e832982b4615d300cb77/lifecycle-livedata-2.0.0/AndroidManifest.xml:17:1-22:12
MERGED from [androidx.lifecycle:lifecycle-livedata-core:2.3.1] /home/ciaran/.gradle/caches/transforms-2/files-2.1/1b748a836e371cc29277a1943e291316/lifecycle-livedata-core-2.3.1/AndroidManifest.xml:17:1-24:12
MERGED from [androidx.arch.core:core-runtime:2.1.0] /home/ciaran/.gradle/caches/transforms-2/files-2.1/268ebc0b2bd661fb18fff0cceeca14c7/core-runtime-2.1.0/AndroidManifest.xml:17:1-24:12
MERGED from [androidx.interpolator:interpolator:1.0.0] /home/ciaran/.gradle/caches/transforms-2/files-2.1/6e0f82970a69a6b386ee45a08ac362fe/interpolator-1.0.0/AndroidManifest.xml:17:1-22:12
MERGED from [androidx.annotation:annotation-experimental:1.0.0] /home/ciaran/.gradle/caches/transforms-2/files-2.1/bebab1ae5fcb073ec17f04f678688aec/jetified-annotation-experimental-1.0.0/AndroidManifest.xml:17:1-24:12
INJECTED from /home/ciaran/AndroidStudioProjects/remote/android/app/src/main/AndroidManifest.xml:1:1-41:12
INJECTED from /home/ciaran/AndroidStudioProjects/remote/android/app/src/main/AndroidManifest.xml:1:1-41:12
INJECTED from /home/ciaran/AndroidStudioProjects/remote/android/app/src/main/AndroidManifest.xml:1:1-41:12
	package
		ADDED from /home/ciaran/AndroidStudioProjects/remote/android/app/src/main/AndroidManifest.xml:2:5-33
		INJECTED from /home/ciaran/AndroidStudioProjects/remote/android/app/src/main/AndroidManifest.xml
		INJECTED from /home/ciaran/AndroidStudioProjects/remote/android/app/src/main/AndroidManifest.xml
	android:versionName
		INJECTED from /home/ciaran/AndroidStudioProjects/remote/android/app/src/main/AndroidManifest.xml
		ADDED from /home/ciaran/AndroidStudioProjects/remote/android/app/src/main/AndroidManifest.xml:1:1-41:12
		INJECTED from /home/ciaran/AndroidStudioProjects/remote/android/app/src/main/AndroidManifest.xml
	android:versionCode
		INJECTED from /home/ciaran/AndroidStudioProjects/remote/android/app/src/main/AndroidManifest.xml
		ADDED from /home/ciaran/AndroidStudioProjects/remote/android/app/src/main/AndroidManifest.xml:1:1-41:12
		INJECTED from /home/ciaran/AndroidStudioProjects/remote/android/app/src/main/AndroidManifest.xml
	xmlns:android
		ADDED from /home/ciaran/AndroidStudioProjects/remote/android/app/src/main/AndroidManifest.xml:1:11-69
application
ADDED from /home/ciaran/AndroidStudioProjects/remote/android/app/src/main/AndroidManifest.xml:3:4-40:19
MERGED from [androidx.core:core:1.5.0] /home/ciaran/.gradle/caches/transforms-2/files-2.1/eebedfd6526cd5539e0a44e6886856e3/core-1.5.0/AndroidManifest.xml:24:5-89
MERGED from [androidx.core:core:1.5.0] /home/ciaran/.gradle/caches/transforms-2/files-2.1/eebedfd6526cd5539e0a44e6886856e3/core-1.5.0/AndroidManifest.xml:24:5-89
MERGED from [androidx.versionedparcelable:versionedparcelable:1.1.1] /home/ciaran/.gradle/caches/transforms-2/files-2.1/cf37ac08cdad525e46b47ab5b0406817/versionedparcelable-1.1.1/AndroidManifest.xml:24:5-25:19
MERGED from [androidx.versionedparcelable:versionedparcelable:1.1.1] /home/ciaran/.gradle/caches/transforms-2/files-2.1/cf37ac08cdad525e46b47ab5b0406817/versionedparcelable-1.1.1/AndroidManifest.xml:24:5-25:19
	android:appComponentFactory
		ADDED from [androidx.core:core:1.5.0] /home/ciaran/.gradle/caches/transforms-2/files-2.1/eebedfd6526cd5539e0a44e6886856e3/core-1.5.0/AndroidManifest.xml:24:18-86
	android:label
		ADDED from /home/ciaran/AndroidStudioProjects/remote/android/app/src/main/AndroidManifest.xml:4:9-31
	android:icon
		ADDED from /home/ciaran/AndroidStudioProjects/remote/android/app/src/main/AndroidManifest.xml:5:9-45
activity#com.example.remote.MainActivity
ADDED from /home/ciaran/AndroidStudioProjects/remote/android/app/src/main/AndroidManifest.xml:6:9-34:20
	android:launchMode
		ADDED from /home/ciaran/AndroidStudioProjects/remote/android/app/src/main/AndroidManifest.xml:8:13-43
	android:hardwareAccelerated
		ADDED from /home/ciaran/AndroidStudioProjects/remote/android/app/src/main/AndroidManifest.xml:11:13-47
	android:windowSoftInputMode
		ADDED from /home/ciaran/AndroidStudioProjects/remote/android/app/src/main/AndroidManifest.xml:12:13-55
	android:configChanges
		ADDED from /home/ciaran/AndroidStudioProjects/remote/android/app/src/main/AndroidManifest.xml:10:13-163
	android:theme
		ADDED from /home/ciaran/AndroidStudioProjects/remote/android/app/src/main/AndroidManifest.xml:9:13-47
	android:name
		ADDED from /home/ciaran/AndroidStudioProjects/remote/android/app/src/main/AndroidManifest.xml:7:13-41
meta-data#io.flutter.embedding.android.NormalTheme
ADDED from /home/ciaran/AndroidStudioProjects/remote/android/app/src/main/AndroidManifest.xml:17:13-20:17
	android:resource
		ADDED from /home/ciaran/AndroidStudioProjects/remote/android/app/src/main/AndroidManifest.xml:19:15-52
	android:name
		ADDED from /home/ciaran/AndroidStudioProjects/remote/android/app/src/main/AndroidManifest.xml:18:15-70
meta-data#io.flutter.embedding.android.SplashScreenDrawable
ADDED from /home/ciaran/AndroidStudioProjects/remote/android/app/src/main/AndroidManifest.xml:26:13-29:17
	android:resource
		ADDED from /home/ciaran/AndroidStudioProjects/remote/android/app/src/main/AndroidManifest.xml:28:15-61
	android:name
		ADDED from /home/ciaran/AndroidStudioProjects/remote/android/app/src/main/AndroidManifest.xml:27:15-79
intent-filter#action:name:android.intent.action.MAIN+category:name:android.intent.category.LAUNCHER
ADDED from /home/ciaran/AndroidStudioProjects/remote/android/app/src/main/AndroidManifest.xml:30:13-33:29
action#android.intent.action.MAIN
ADDED from /home/ciaran/AndroidStudioProjects/remote/android/app/src/main/AndroidManifest.xml:31:17-68
	android:name
		ADDED from /home/ciaran/AndroidStudioProjects/remote/android/app/src/main/AndroidManifest.xml:31:25-66
category#android.intent.category.LAUNCHER
ADDED from /home/ciaran/AndroidStudioProjects/remote/android/app/src/main/AndroidManifest.xml:32:17-76
	android:name
		ADDED from /home/ciaran/AndroidStudioProjects/remote/android/app/src/main/AndroidManifest.xml:32:27-74
meta-data#flutterEmbedding
ADDED from /home/ciaran/AndroidStudioProjects/remote/android/app/src/main/AndroidManifest.xml:37:9-39:33
	android:value
		ADDED from /home/ciaran/AndroidStudioProjects/remote/android/app/src/main/AndroidManifest.xml:39:13-30
	android:name
		ADDED from /home/ciaran/AndroidStudioProjects/remote/android/app/src/main/AndroidManifest.xml:38:13-44
uses-sdk
INJECTED from /home/ciaran/AndroidStudioProjects/remote/android/app/src/main/AndroidManifest.xml reason: use-sdk injection requested
INJECTED from /home/ciaran/AndroidStudioProjects/remote/android/app/src/main/AndroidManifest.xml
INJECTED from /home/ciaran/AndroidStudioProjects/remote/android/app/src/main/AndroidManifest.xml
MERGED from [:flutter_bluetooth_serial] /home/ciaran/AndroidStudioProjects/remote/build/flutter_bluetooth_serial/intermediates/library_manifest/release/AndroidManifest.xml:5:5-44
MERGED from [:flutter_bluetooth_serial] /home/ciaran/AndroidStudioProjects/remote/build/flutter_bluetooth_serial/intermediates/library_manifest/release/AndroidManifest.xml:5:5-44
MERGED from [androidx.appcompat:appcompat:1.3.0] /home/ciaran/.gradle/caches/transforms-2/files-2.1/8e826fe49562abada5d181756485a861/appcompat-1.3.0/AndroidManifest.xml:20:5-22:41
MERGED from [androidx.appcompat:appcompat:1.3.0] /home/ciaran/.gradle/caches/transforms-2/files-2.1/8e826fe49562abada5d181756485a861/appcompat-1.3.0/AndroidManifest.xml:20:5-22:41
MERGED from [androidx.fragment:fragment:1.3.4] /home/ciaran/.gradle/caches/transforms-2/files-2.1/0fe786355672e38948fbc9c1fff747a3/fragment-1.3.4/AndroidManifest.xml:20:5-22:41
MERGED from [androidx.fragment:fragment:1.3.4] /home/ciaran/.gradle/caches/transforms-2/files-2.1/0fe786355672e38948fbc9c1fff747a3/fragment-1.3.4/AndroidManifest.xml:20:5-22:41
MERGED from [androidx.activity:activity:1.2.3] /home/ciaran/.gradle/caches/transforms-2/files-2.1/1cfe8ee384ca28182df52c824e57e5c0/jetified-activity-1.2.3/AndroidManifest.xml:20:5-22:41
MERGED from [androidx.activity:activity:1.2.3] /home/ciaran/.gradle/caches/transforms-2/files-2.1/1cfe8ee384ca28182df52c824e57e5c0/jetified-activity-1.2.3/AndroidManifest.xml:20:5-22:41
MERGED from [androidx.appcompat:appcompat-resources:1.3.0] /home/ciaran/.gradle/caches/transforms-2/files-2.1/6704617e5cf2b2cf363841e778f9329d/jetified-appcompat-resources-1.3.0/AndroidManifest.xml:20:5-22:41
MERGED from [androidx.appcompat:appcompat-resources:1.3.0] /home/ciaran/.gradle/caches/transforms-2/files-2.1/6704617e5cf2b2cf363841e778f9329d/jetified-appcompat-resources-1.3.0/AndroidManifest.xml:20:5-22:41
MERGED from [androidx.drawerlayout:drawerlayout:1.0.0] /home/ciaran/.gradle/caches/transforms-2/files-2.1/22a5d9f52d495a432176451a4c4ba982/drawerlayout-1.0.0/AndroidManifest.xml:20:5-44
MERGED from [androidx.drawerlayout:drawerlayout:1.0.0] /home/ciaran/.gradle/caches/transforms-2/files-2.1/22a5d9f52d495a432176451a4c4ba982/drawerlayout-1.0.0/AndroidManifest.xml:20:5-44
MERGED from [androidx.viewpager:viewpager:1.0.0] /home/ciaran/.gradle/caches/transforms-2/files-2.1/2f70304b103eacfab05dbe55739e869f/viewpager-1.0.0/AndroidManifest.xml:20:5-44
MERGED from [androidx.viewpager:viewpager:1.0.0] /home/ciaran/.gradle/caches/transforms-2/files-2.1/2f70304b103eacfab05dbe55739e869f/viewpager-1.0.0/AndroidManifest.xml:20:5-44
MERGED from [androidx.loader:loader:1.0.0] /home/ciaran/.gradle/caches/transforms-2/files-2.1/49dee3543bc65746b6bba9f83aa0b18a/loader-1.0.0/AndroidManifest.xml:20:5-44
MERGED from [androidx.loader:loader:1.0.0] /home/ciaran/.gradle/caches/transforms-2/files-2.1/49dee3543bc65746b6bba9f83aa0b18a/loader-1.0.0/AndroidManifest.xml:20:5-44
MERGED from [androidx.vectordrawable:vectordrawable-animated:1.1.0] /home/ciaran/.gradle/caches/transforms-2/files-2.1/2ee35bfe9d2e9019f071c4a047a96db2/vectordrawable-animated-1.1.0/AndroidManifest.xml:20:5-22:41
MERGED from [androidx.vectordrawable:vectordrawable-animated:1.1.0] /home/ciaran/.gradle/caches/transforms-2/files-2.1/2ee35bfe9d2e9019f071c4a047a96db2/vectordrawable-animated-1.1.0/AndroidManifest.xml:20:5-22:41
MERGED from [androidx.vectordrawable:vectordrawable:1.1.0] /home/ciaran/.gradle/caches/transforms-2/files-2.1/361553562ce35cf8cf447832c4a7d1ec/vectordrawable-1.1.0/AndroidManifest.xml:20:5-22:41
MERGED from [androidx.vectordrawable:vectordrawable:1.1.0] /home/ciaran/.gradle/caches/transforms-2/files-2.1/361553562ce35cf8cf447832c4a7d1ec/vectordrawable-1.1.0/AndroidManifest.xml:20:5-22:41
MERGED from [androidx.customview:customview:1.0.0] /home/ciaran/.gradle/caches/transforms-2/files-2.1/86cf751735e9e9dd0416cce35c4a71a1/customview-1.0.0/AndroidManifest.xml:20:5-44
MERGED from [androidx.customview:customview:1.0.0] /home/ciaran/.gradle/caches/transforms-2/files-2.1/86cf751735e9e9dd0416cce35c4a71a1/customview-1.0.0/AndroidManifest.xml:20:5-44
MERGED from [androidx.core:core:1.5.0] /home/ciaran/.gradle/caches/transforms-2/files-2.1/eebedfd6526cd5539e0a44e6886856e3/core-1.5.0/AndroidManifest.xml:20:5-22:41
MERGED from [androidx.core:core:1.5.0] /home/ciaran/.gradle/caches/transforms-2/files-2.1/eebedfd6526cd5539e0a44e6886856e3/core-1.5.0/AndroidManifest.xml:20:5-22:41
MERGED from [androidx.cursoradapter:cursoradapter:1.0.0] /home/ciaran/.gradle/caches/transforms-2/files-2.1/bae4382a703142a8f82a100a412243f1/cursoradapter-1.0.0/AndroidManifest.xml:20:5-44
MERGED from [androidx.cursoradapter:cursoradapter:1.0.0] /home/ciaran/.gradle/caches/transforms-2/files-2.1/bae4382a703142a8f82a100a412243f1/cursoradapter-1.0.0/AndroidManifest.xml:20:5-44
MERGED from [androidx.lifecycle:lifecycle-viewmodel-savedstate:2.3.1] /home/ciaran/.gradle/caches/transforms-2/files-2.1/992030e32b5b233f7b54200907a8c687/jetified-lifecycle-viewmodel-savedstate-2.3.1/AndroidManifest.xml:20:5-22:41
MERGED from [androidx.lifecycle:lifecycle-viewmodel-savedstate:2.3.1] /home/ciaran/.gradle/caches/transforms-2/files-2.1/992030e32b5b233f7b54200907a8c687/jetified-lifecycle-viewmodel-savedstate-2.3.1/AndroidManifest.xml:20:5-22:41
MERGED from [androidx.savedstate:savedstate:1.1.0] /home/ciaran/.gradle/caches/transforms-2/files-2.1/3d71f750e18beb8ec39e98e4d040998e/jetified-savedstate-1.1.0/AndroidManifest.xml:20:5-22:41
MERGED from [androidx.savedstate:savedstate:1.1.0] /home/ciaran/.gradle/caches/transforms-2/files-2.1/3d71f750e18beb8ec39e98e4d040998e/jetified-savedstate-1.1.0/AndroidManifest.xml:20:5-22:41
MERGED from [androidx.lifecycle:lifecycle-runtime:2.3.1] /home/ciaran/.gradle/caches/transforms-2/files-2.1/9611d01e277af0a0bee38db16de6184f/lifecycle-runtime-2.3.1/AndroidManifest.xml:20:5-22:41
MERGED from [androidx.lifecycle:lifecycle-runtime:2.3.1] /home/ciaran/.gradle/caches/transforms-2/files-2.1/9611d01e277af0a0bee38db16de6184f/lifecycle-runtime-2.3.1/AndroidManifest.xml:20:5-22:41
MERGED from [androidx.lifecycle:lifecycle-viewmodel:2.3.1] /home/ciaran/.gradle/caches/transforms-2/files-2.1/eb99decb44820e6dccd0fcc1b7518938/lifecycle-viewmodel-2.3.1/AndroidManifest.xml:20:5-22:41
MERGED from [androidx.lifecycle:lifecycle-viewmodel:2.3.1] /home/ciaran/.gradle/caches/transforms-2/files-2.1/eb99decb44820e6dccd0fcc1b7518938/lifecycle-viewmodel-2.3.1/AndroidManifest.xml:20:5-22:41
MERGED from [androidx.versionedparcelable:versionedparcelable:1.1.1] /home/ciaran/.gradle/caches/transforms-2/files-2.1/cf37ac08cdad525e46b47ab5b0406817/versionedparcelable-1.1.1/AndroidManifest.xml:20:5-22:41
MERGED from [androidx.versionedparcelable:versionedparcelable:1.1.1] /home/ciaran/.gradle/caches/transforms-2/files-2.1/cf37ac08cdad525e46b47ab5b0406817/versionedparcelable-1.1.1/AndroidManifest.xml:20:5-22:41
MERGED from [androidx.tracing:tracing:1.0.0] /home/ciaran/.gradle/caches/transforms-2/files-2.1/7c1a7b78a9eb87d9a948f050e96a4e5d/jetified-tracing-1.0.0/AndroidManifest.xml:20:5-22:41
MERGED from [androidx.tracing:tracing:1.0.0] /home/ciaran/.gradle/caches/transforms-2/files-2.1/7c1a7b78a9eb87d9a948f050e96a4e5d/jetified-tracing-1.0.0/AndroidManifest.xml:20:5-22:41
MERGED from [androidx.lifecycle:lifecycle-livedata:2.0.0] /home/ciaran/.gradle/caches/transforms-2/files-2.1/15faa7fdc535e832982b4615d300cb77/lifecycle-livedata-2.0.0/AndroidManifest.xml:20:5-44
MERGED from [androidx.lifecycle:lifecycle-livedata:2.0.0] /home/ciaran/.gradle/caches/transforms-2/files-2.1/15faa7fdc535e832982b4615d300cb77/lifecycle-livedata-2.0.0/AndroidManifest.xml:20:5-44
MERGED from [androidx.lifecycle:lifecycle-livedata-core:2.3.1] /home/ciaran/.gradle/caches/transforms-2/files-2.1/1b748a836e371cc29277a1943e291316/lifecycle-livedata-core-2.3.1/AndroidManifest.xml:20:5-22:41
MERGED from [androidx.lifecycle:lifecycle-livedata-core:2.3.1] /home/ciaran/.gradle/caches/transforms-2/files-2.1/1b748a836e371cc29277a1943e291316/lifecycle-livedata-core-2.3.1/AndroidManifest.xml:20:5-22:41
MERGED from [androidx.arch.core:core-runtime:2.1.0] /home/ciaran/.gradle/caches/transforms-2/files-2.1/268ebc0b2bd661fb18fff0cceeca14c7/core-runtime-2.1.0/AndroidManifest.xml:20:5-22:41
MERGED from [androidx.arch.core:core-runtime:2.1.0] /home/ciaran/.gradle/caches/transforms-2/files-2.1/268ebc0b2bd661fb18fff0cceeca14c7/core-runtime-2.1.0/AndroidManifest.xml:20:5-22:41
MERGED from [androidx.interpolator:interpolator:1.0.0] /home/ciaran/.gradle/caches/transforms-2/files-2.1/6e0f82970a69a6b386ee45a08ac362fe/interpolator-1.0.0/AndroidManifest.xml:20:5-44
MERGED from [androidx.interpolator:interpolator:1.0.0] /home/ciaran/.gradle/caches/transforms-2/files-2.1/6e0f82970a69a6b386ee45a08ac362fe/interpolator-1.0.0/AndroidManifest.xml:20:5-44
MERGED from [androidx.annotation:annotation-experimental:1.0.0] /home/ciaran/.gradle/caches/transforms-2/files-2.1/bebab1ae5fcb073ec17f04f678688aec/jetified-annotation-experimental-1.0.0/AndroidManifest.xml:20:5-22:41
MERGED from [androidx.annotation:annotation-experimental:1.0.0] /home/ciaran/.gradle/caches/transforms-2/files-2.1/bebab1ae5fcb073ec17f04f678688aec/jetified-annotation-experimental-1.0.0/AndroidManifest.xml:20:5-22:41
INJECTED from /home/ciaran/AndroidStudioProjects/remote/android/app/src/main/AndroidManifest.xml
INJECTED from /home/ciaran/AndroidStudioProjects/remote/android/app/src/main/AndroidManifest.xml
	android:targetSdkVersion
		INJECTED from /home/ciaran/AndroidStudioProjects/remote/android/app/src/main/AndroidManifest.xml
		ADDED from /home/ciaran/AndroidStudioProjects/remote/android/app/src/main/AndroidManifest.xml
		INJECTED from /home/ciaran/AndroidStudioProjects/remote/android/app/src/main/AndroidManifest.xml
	android:minSdkVersion
		INJECTED from /home/ciaran/AndroidStudioProjects/remote/android/app/src/main/AndroidManifest.xml
		ADDED from /home/ciaran/AndroidStudioProjects/remote/android/app/src/main/AndroidManifest.xml
		INJECTED from /home/ciaran/AndroidStudioProjects/remote/android/app/src/main/AndroidManifest.xml
uses-permission#android.permission.BLUETOOTH
ADDED from [:flutter_bluetooth_serial] /home/ciaran/AndroidStudioProjects/remote/build/flutter_bluetooth_serial/intermediates/library_manifest/release/AndroidManifest.xml:7:5-68
	android:name
		ADDED from [:flutter_bluetooth_serial] /home/ciaran/AndroidStudioProjects/remote/build/flutter_bluetooth_serial/intermediates/library_manifest/release/AndroidManifest.xml:7:22-65
uses-permission#android.permission.BLUETOOTH_ADMIN
ADDED from [:flutter_bluetooth_serial] /home/ciaran/AndroidStudioProjects/remote/build/flutter_bluetooth_serial/intermediates/library_manifest/release/AndroidManifest.xml:8:5-74
	android:name
		ADDED from [:flutter_bluetooth_serial] /home/ciaran/AndroidStudioProjects/remote/build/flutter_bluetooth_serial/intermediates/library_manifest/release/AndroidManifest.xml:8:22-71
uses-permission#android.permission.ACCESS_COARSE_LOCATION
ADDED from [:flutter_bluetooth_serial] /home/ciaran/AndroidStudioProjects/remote/build/flutter_bluetooth_serial/intermediates/library_manifest/release/AndroidManifest.xml:9:5-81
	android:name
		ADDED from [:flutter_bluetooth_serial] /home/ciaran/AndroidStudioProjects/remote/build/flutter_bluetooth_serial/intermediates/library_manifest/release/AndroidManifest.xml:9:22-78
uses-permission#android.permission.ACCESS_FINE_LOCATION
ADDED from [:flutter_bluetooth_serial] /home/ciaran/AndroidStudioProjects/remote/build/flutter_bluetooth_serial/intermediates/library_manifest/release/AndroidManifest.xml:10:5-79
	android:name
		ADDED from [:flutter_bluetooth_serial] /home/ciaran/AndroidStudioProjects/remote/build/flutter_bluetooth_serial/intermediates/library_manifest/release/AndroidManifest.xml:10:22-76
